<?xml version="1.0" encoding="UTF-8" standalone="no"?>
<!-- Created with Inkscape (http://www.inkscape.org/) -->

<svg
   xmlns:dc="http://purl.org/dc/elements/1.1/"
   xmlns:cc="http://creativecommons.org/ns#"
   xmlns:rdf="http://www.w3.org/1999/02/22-rdf-syntax-ns#"
   xmlns:svg="http://www.w3.org/2000/svg"
   xmlns="http://www.w3.org/2000/svg"
   xmlns:sodipodi="http://sodipodi.sourceforge.net/DTD/sodipodi-0.dtd"
   xmlns:inkscape="http://www.inkscape.org/namespaces/inkscape"
   width="64px"
   height="64px"
   id="svg4557"
   version="1.1"
   inkscape:version="0.48.4 r9939"
   sodipodi:docname="bunny.svg"
   inkscape:export-filename="/home/steve/db/code/Python/ducks/bunny.png"
   inkscape:export-xdpi="90"
   inkscape:export-ydpi="90">
  <defs
     id="defs4559" />
  <sodipodi:namedview
     id="base"
     pagecolor="#ffffff"
     bordercolor="#666666"
     borderopacity="1.0"
     inkscape:pageopacity="0.0"
     inkscape:pageshadow="2"
     inkscape:zoom="8.46875"
     inkscape:cx="32"
     inkscape:cy="32"
     inkscape:current-layer="layer1"
     showgrid="true"
     inkscape:document-units="px"
     inkscape:grid-bbox="true"
     inkscape:window-width="1366"
     inkscape:window-height="718"
     inkscape:window-x="0"
     inkscape:window-y="0"
     inkscape:window-maximized="1" />
  <metadata
     id="metadata4562">
    <rdf:RDF>
      <cc:Work
         rdf:about="">
        <dc:format>image/svg+xml</dc:format>
        <dc:type
           rdf:resource="http://purl.org/dc/dcmitype/StillImage" />
        <dc:title></dc:title>
      </cc:Work>
    </rdf:RDF>
  </metadata>
  <g
     id="layer1"
     inkscape:label="Layer 1"
     inkscape:groupmode="layer">
    <path
       style="fill:#ffc8ff;fill-opacity:1;stroke:#000000;stroke-width:1.40529716px;stroke-linecap:butt;stroke-linejoin:miter;stroke-opacity:1"
       d="m 31.794624,37.527692 c -2.594474,0.03171 -5.420527,-0.284717 -7.752797,0.463648 -2.365225,0.758941 -4.190762,2.250058 -5.403463,3.786464 -2.671766,3.384937 -3.966791,7.401935 -3.523997,11.204844 0.1883,1.617215 0.736237,3.485542 2.584266,4.559212 3.559294,2.067881 9.113564,2.094847 13.86106,2.163693 5.420274,0.07859 11.812007,0.275326 15.975459,-2.009144 1.999079,-1.096889 2.682956,-3.080895 2.819196,-4.791036 C 50.683436,48.774535 49.063932,44.299246 45.420752,40.927781 43.772129,39.402116 41.067895,38.359855 38.372755,37.759516 36.292896,37.29623 33.9901,37.500868 31.794624,37.527692 z"
       id="path5277"
       inkscape:connector-curvature="0"
       sodipodi:nodetypes="sssssssssss" />
    <path
       sodipodi:type="arc"
       style="fill:#ffc8ff;fill-opacity:1;stroke:#000000"
       id="path4565"
       sodipodi:cx="30.09091"
       sodipodi:cy="25.818182"
       sodipodi:rx="9.727273"
       sodipodi:ry="9.272727"
       d="m 39.818183,25.818182 a 9.727273,9.272727 0 1 1 -19.454546,0 9.727273,9.272727 0 1 1 19.454546,0 z"
       transform="matrix(1.7326324,0,0,1.1398031,-21.118741,-0.89895264)" />
    <path
       style="fill:#ff64ff;fill-opacity:1;stroke:#000000;stroke-width:1.40529716px;stroke-linecap:butt;stroke-linejoin:miter;stroke-opacity:1"
       d="m 30.230182,17.959606 c 0,0 -3.323022,-5.713551 -5.78471,-8.30659 C 22.273169,7.3648032 19.57951,5.1992914 17.393405,4.4961541 15.575943,3.9115869 11.703511,2.5748539 9.6780376,3.180801 7.6190101,3.7967865 6.9310459,7.3723304 7.8652893,8.4079838 9.9859999,10.758892 13.744122,9.845829 16.369123,10.913551 c 3.584146,1.457858 7.84704,7.617081 9.199788,7.488637 z"
       id="path4569"
       inkscape:connector-curvature="0"
       sodipodi:nodetypes="cssssssc" />
    <path
       style="fill:#ff64ff;fill-opacity:1;stroke:#000000;stroke-width:1.40529716px;stroke-linecap:butt;stroke-linejoin:miter;stroke-opacity:1"
       d="m 32.018947,17.905425 c 0,0 -0.195535,-5.158399 1.840555,-7.184077 1.33919,-1.3323425 3.736257,-2.3364672 6.135184,-2.5830387 2.048641,-0.2105671 4.247722,0.3332404 6.012479,1.0493602 4.463571,1.8112675 8.152503,4.6413165 10.429813,7.7491165 1.027817,1.40264 1.830109,3.095323 1.227036,4.601037 -0.2295,0.573003 -0.821919,1.310983 -1.71785,1.37224 -1.562955,0.106865 -2.603556,-1.184891 -3.681111,-1.937279 -2.575806,-1.798522 -4.04778,-4.184078 -6.503294,-6.053998 -2.326187,-1.771437 -4.390358,-5.6507212 -7.730332,-4.843199 -4.014883,0.970703 -1.349741,8.394878 -1.349741,8.394878 z"
       id="path5079"
       inkscape:connector-curvature="0"
       sodipodi:nodetypes="cssssssssscc" />
    <path
       sodipodi:type="arc"
       style="fill:#ffffff;fill-opacity:1;stroke:#000000;stroke-width:0.56649303"
       id="path5081"
       sodipodi:cx="30.062759"
       sodipodi:cy="28.307112"
       sodipodi:rx="2.2308054"
       sodipodi:ry="2.1953959"
       d="m 32.293565,28.307112 a 2.2308054,2.1953959 0 1 1 -4.461611,0 2.2308054,2.1953959 0 1 1 4.461611,0 z"
       transform="matrix(2.4318976,0,0,1.4233913,-48.391478,-15.121878)" />
    <path
       transform="matrix(2.3512767,0,0,1.4614195,-33.700172,-16.149763)"
       sodipodi:type="arc"
       style="fill:#ffffff;fill-opacity:1;stroke:#000000;stroke-width:0.568578"
       id="path5081-8"
       sodipodi:cx="30.062759"
       sodipodi:cy="28.307112"
       sodipodi:rx="2.2308054"
       sodipodi:ry="2.1953959"
       d="m 32.293565,28.307112 a 2.2308054,2.1953959 0 1 1 -4.461611,0 2.2308054,2.1953959 0 1 1 4.461611,0 z" />
    <path
       sodipodi:type="arc"
       style="fill:#ff64ff;fill-opacity:1;stroke:#000000;stroke-width:0.57854372"
       id="path5101"
       sodipodi:cx="32.506023"
       sodipodi:cy="31.458569"
       sodipodi:rx="1.2747459"
       sodipodi:ry="1.3101556"
       d="m 33.780769,31.458569 a 1.2747459,1.3101556 0 1 1 -2.549492,0 1.2747459,1.3101556 0 1 1 2.549492,0 z"
       transform="matrix(2.3012863,0,0,1.4421677,-43.522942,-16.36411)" />
    <path
       sodipodi:type="arc"
       style="fill:#000000;fill-opacity:1;stroke:#000000"
       id="path5103"
       sodipodi:cx="30.027349"
       sodipodi:cy="29.298582"
       sodipodi:rx="0.77901143"
       sodipodi:ry="0.84983063"
       d="m 30.806361,29.298582 a 0.77901143,0.84983063 0 1 1 -1.558023,0 0.77901143,0.84983063 0 1 1 1.558023,0 z"
       transform="matrix(2.7347562,0,0,1.5066491,-56.785883,-17.600222)" />
    <path
       transform="matrix(2.6887766,0,0,1.6213977,-44.119251,-21.034693)"
       sodipodi:type="arc"
       style="fill:#000000;fill-opacity:1;stroke:#000000"
       id="path5103-0"
       sodipodi:cx="30.027349"
       sodipodi:cy="29.298582"
       sodipodi:rx="0.77901143"
       sodipodi:ry="0.84983063"
       d="m 30.806361,29.298582 a 0.77901143,0.84983063 0 1 1 -1.558023,0 0.77901143,0.84983063 0 1 1 1.558023,0 z" />
    <path
       style="fill:none;stroke:#000000;stroke-width:1.40529716px;stroke-linecap:butt;stroke-linejoin:miter;stroke-opacity:1"
       d="m 22.079949,32.515738 c 0,0 2.167817,1.667413 8.957368,1.695121 7.185386,0.02932 9.32548,-1.937281 9.32548,-1.937281"
       id="path5123"
       inkscape:connector-curvature="0"
       sodipodi:nodetypes="csc" />
    <rect
       style="fill:#ffffff;fill-opacity:1;stroke:#000000;stroke-width:0.91735435"
       id="rect5125"
       width="2.7392316"
       height="2.6323805"
       x="33.518707"
       y="32.27652"
       transform="matrix(0.99772456,0.06742184,-0.15428083,0.98802704,0,0)" />
    <rect
       style="fill:#ffffff;fill-opacity:1;stroke:#000000;stroke-width:0.91735435"
       id="rect5125-6"
       width="2.7392316"
       height="2.6323805"
       x="-29.344446"
       y="36.443676"
       transform="matrix(-0.99772456,0.06742184,0.15428083,0.98802704,0,0)" />
    <g
       id="g5237"
       transform="matrix(1.7326324,0,0,1.1398031,-25.529077,-6.2871126)">
      <path
         sodipodi:nodetypes="sssssssss"
         inkscape:connector-curvature="0"
         id="path5156"
         d="m 24.61243,59.37871 c 0.293391,-0.108415 0.533467,-0.331639 0.819742,-0.457825 1.032884,-0.455278 0.413427,-4.495266 0,-6.684238 -0.401742,-2.127099 -0.572518,-4.847816 -2.368142,-6.043284 -0.987534,-0.657468 -2.409524,-0.22187 -3.552212,0.09157 -1.206239,0.330867 -2.795781,0.671989 -3.278965,1.831298 -0.791328,1.898647 0.669729,4.138628 1.639482,5.951719 1.182162,2.210217 3.921867,5.783228 4.918448,5.677024 0.615791,-0.06562 1.240427,-0.151484 1.821647,-0.366259 z"
         style="fill:#ffc8ff;fill-opacity:1;stroke:#000000;stroke-width:0.77339429px;stroke-linecap:butt;stroke-linejoin:miter;stroke-opacity:1" />
      <path
         sodipodi:nodetypes="sssssssss"
         inkscape:connector-curvature="0"
         id="path5156-3"
         d="m 23.870172,57.973333 c 0.145375,-0.05343 0.264333,-0.163442 0.406182,-0.225631 0.511792,-0.224376 0.204852,-2.215415 0,-3.294212 -0.199063,-1.048305 -0.283682,-2.389163 -1.173413,-2.978329 -0.489322,-0.324022 -1.193917,-0.109345 -1.760117,0.04513 -0.597691,0.163062 -1.385307,0.331179 -1.624725,0.902524 -0.392103,0.935716 0.33185,2.039652 0.812362,2.933203 0.58576,1.089268 1.943282,2.850165 2.437087,2.797824 0.305124,-0.03234 0.61463,-0.07466 0.902624,-0.180504 z"
         style="fill:#ff00ff;fill-opacity:1;stroke:#ff00ff;stroke-width:0.38218376px;stroke-linecap:butt;stroke-linejoin:miter;stroke-opacity:1" />
      <path
         sodipodi:nodetypes="sssssssss"
         inkscape:connector-curvature="0"
         id="path5156-3-0"
         d="m 19.459854,50.984958 c 0.03655,-0.03003 0.061,-0.08163 0.09583,-0.115029 0.125676,-0.120516 -0.124389,-0.914688 -0.270727,-1.342805 -0.142205,-0.416015 -0.276231,-0.957778 -0.575189,-1.147425 -0.164417,-0.1043 -0.345181,0.02321 -0.491921,0.118325 -0.154902,0.100405 -0.362871,0.213644 -0.383334,0.460131 -0.03351,0.403683 0.261074,0.812574 0.469812,1.149529 0.254463,0.410759 0.781443,1.051475 0.916191,1.002105 0.08326,-0.03051 0.166939,-0.06532 0.239336,-0.124823 z"
         style="fill:#ff00ff;fill-opacity:1;stroke:#ff00ff;stroke-width:0.13208795px;stroke-linecap:butt;stroke-linejoin:miter;stroke-opacity:1" />
      <path
         sodipodi:nodetypes="sssssssss"
         inkscape:connector-curvature="0"
         id="path5156-3-0-7"
         d="m 21.080353,50.485754 c 0.03964,-0.02582 0.06962,-0.07441 0.107918,-0.103772 0.138187,-0.105939 -0.02287,-0.922824 -0.12116,-1.364456 -0.09551,-0.429148 -0.169044,-0.982378 -0.445291,-1.203803 -0.151927,-0.121777 -0.345637,-0.01496 -0.501962,0.06342 -0.16502,0.08273 -0.384197,0.172371 -0.431688,0.415104 -0.07777,0.397535 0.169975,0.836388 0.340324,1.194286 0.207667,0.436291 0.66086,1.131158 0.800226,1.096932 0.08611,-0.02115 0.173119,-0.04653 0.25163,-0.0977 z"
         style="fill:#ff00ff;fill-opacity:1;stroke:#ff00ff;stroke-width:0.13208795px;stroke-linecap:butt;stroke-linejoin:miter;stroke-opacity:1" />
      <path
         sodipodi:nodetypes="sssssssss"
         inkscape:connector-curvature="0"
         id="path5156-3-0-0"
         d="m 22.896919,50.180966 c 0.04112,-0.02338 0.07399,-0.07007 0.113997,-0.09706 0.14434,-0.09739 0.03298,-0.922518 -0.03842,-1.369285 -0.06938,-0.434139 -0.109322,-0.990804 -0.371673,-1.22853 -0.144284,-0.130743 -0.3441,-0.03583 -0.504878,0.03294 -0.169721,0.0726 -0.393918,0.14882 -0.456002,0.388237 -0.101674,0.392103 0.11908,0.845136 0.267473,1.212682 0.1809,0.448051 0.59124,1.169054 0.732421,1.143319 0.08724,-0.01591 0.175616,-0.03598 0.257078,-0.0823 z"
         style="fill:#ff00ff;fill-opacity:1;stroke:#ff00ff;stroke-width:0.13208795px;stroke-linecap:butt;stroke-linejoin:miter;stroke-opacity:1" />
    </g>
    <g
       transform="matrix(-1.7326324,0,0,1.1398031,89.914602,-6.579598)"
       id="g5237-4">
      <path
         sodipodi:nodetypes="sssssssss"
         inkscape:connector-curvature="0"
         id="path5156-39"
         d="m 24.61243,59.37871 c 0.293391,-0.108415 0.533467,-0.331639 0.819742,-0.457825 1.032884,-0.455278 0.413427,-4.495266 0,-6.684238 -0.401742,-2.127099 -0.572518,-4.847816 -2.368142,-6.043284 -0.987534,-0.657468 -2.409524,-0.22187 -3.552212,0.09157 -1.206239,0.330867 -2.795781,0.671989 -3.278965,1.831298 -0.791328,1.898647 0.669729,4.138628 1.639482,5.951719 1.182162,2.210217 3.921867,5.783228 4.918448,5.677024 0.615791,-0.06562 1.240427,-0.151484 1.821647,-0.366259 z"
         style="fill:#ffc8ff;fill-opacity:1;stroke:#000000;stroke-width:0.77339429px;stroke-linecap:butt;stroke-linejoin:miter;stroke-opacity:1" />
      <path
         sodipodi:nodetypes="sssssssss"
         inkscape:connector-curvature="0"
         id="path5156-3-09"
         d="m 23.870172,57.973333 c 0.145375,-0.05343 0.264333,-0.163442 0.406182,-0.225631 0.511792,-0.224376 0.204852,-2.215415 0,-3.294212 -0.199063,-1.048305 -0.283682,-2.389163 -1.173413,-2.978329 -0.489322,-0.324022 -1.193917,-0.109345 -1.760117,0.04513 -0.597691,0.163062 -1.385307,0.331179 -1.624725,0.902524 -0.392103,0.935716 0.33185,2.039652 0.812362,2.933203 0.58576,1.089268 1.943282,2.850165 2.437087,2.797824 0.305124,-0.03234 0.61463,-0.07466 0.902624,-0.180504 z"
         style="fill:#ff00ff;fill-opacity:1;stroke:#ff00ff;stroke-width:0.38218376px;stroke-linecap:butt;stroke-linejoin:miter;stroke-opacity:1" />
      <path
         sodipodi:nodetypes="sssssssss"
         inkscape:connector-curvature="0"
         id="path5156-3-0-4"
         d="m 19.459854,50.984958 c 0.03655,-0.03003 0.061,-0.08163 0.09583,-0.115029 0.125676,-0.120516 -0.124389,-0.914688 -0.270727,-1.342805 -0.142205,-0.416015 -0.276231,-0.957778 -0.575189,-1.147425 -0.164417,-0.1043 -0.345181,0.02321 -0.491921,0.118325 -0.154902,0.100405 -0.362871,0.213644 -0.383334,0.460131 -0.03351,0.403683 0.261074,0.812574 0.469812,1.149529 0.254463,0.410759 0.781443,1.051475 0.916191,1.002105 0.08326,-0.03051 0.166939,-0.06532 0.239336,-0.124823 z"
         style="fill:#ff00ff;fill-opacity:1;stroke:#ff00ff;stroke-width:0.13208795px;stroke-linecap:butt;stroke-linejoin:miter;stroke-opacity:1" />
      <path
         sodipodi:nodetypes="sssssssss"
         inkscape:connector-curvature="0"
         id="path5156-3-0-7-3"
         d="m 21.080353,50.485754 c 0.03964,-0.02582 0.06962,-0.07441 0.107918,-0.103772 0.138187,-0.105939 -0.02287,-0.922824 -0.12116,-1.364456 -0.09551,-0.429148 -0.169044,-0.982378 -0.445291,-1.203803 -0.151927,-0.121777 -0.345637,-0.01496 -0.501962,0.06342 -0.16502,0.08273 -0.384197,0.172371 -0.431688,0.415104 -0.07777,0.397535 0.169975,0.836388 0.340324,1.194286 0.207667,0.436291 0.66086,1.131158 0.800226,1.096932 0.08611,-0.02115 0.173119,-0.04653 0.25163,-0.0977 z"
         style="fill:#ff00ff;fill-opacity:1;stroke:#ff00ff;stroke-width:0.13208795px;stroke-linecap:butt;stroke-linejoin:miter;stroke-opacity:1" />
      <path
         sodipodi:nodetypes="sssssssss"
         inkscape:connector-curvature="0"
         id="path5156-3-0-0-0"
         d="m 22.896919,50.180966 c 0.04112,-0.02338 0.07399,-0.07007 0.113997,-0.09706 0.14434,-0.09739 0.03298,-0.922518 -0.03842,-1.369285 -0.06938,-0.434139 -0.109322,-0.990804 -0.371673,-1.22853 -0.144284,-0.130743 -0.3441,-0.03583 -0.504878,0.03294 -0.169721,0.0726 -0.393918,0.14882 -0.456002,0.388237 -0.101674,0.392103 0.11908,0.845136 0.267473,1.212682 0.1809,0.448051 0.59124,1.169054 0.732421,1.143319 0.08724,-0.01591 0.175616,-0.03598 0.257078,-0.0823 z"
         style="fill:#ff00ff;fill-opacity:1;stroke:#ff00ff;stroke-width:0.13208795px;stroke-linecap:butt;stroke-linejoin:miter;stroke-opacity:1" />
    </g>
    <path
       style="fill:none;stroke:#000000;stroke-width:1.40529716px;stroke-linecap:butt;stroke-linejoin:miter;stroke-opacity:1"
       d="m 18.458047,42.972569 c 0,0 -0.06135,2.813431 0.409182,4.172268 0.93103,2.688652 1.524486,5.875855 4.7056,7.67159 0.903853,0.510225 2.399484,0.870683 3.47805,0.538357 1.380965,-0.4255 2.368357,-1.711298 2.045915,-2.691785 -0.531229,-1.61537 -5.173123,-4.381187 -6.137737,-6.998644 -0.337813,-0.916638 0.204589,-2.826376 0.204589,-2.826376"
       id="path5279"
       inkscape:connector-curvature="0"
       sodipodi:nodetypes="csssssc" />
    <path
       style="fill:none;stroke:#000000;stroke-width:1.40529716px;stroke-linecap:butt;stroke-linejoin:miter;stroke-opacity:1"
       d="m 45.902647,42.975679 c 0,0 0.06135,2.813432 -0.409182,4.172269 -0.93103,2.688652 -1.524487,5.875853 -4.705599,7.67159 -0.903854,0.510225 -2.399485,0.870683 -3.478053,0.538358 -1.380962,-0.4255 -2.368356,-1.711301 -2.045912,-2.691788 0.531228,-1.615371 5.173122,-4.381186 6.137737,-6.998643 0.337812,-0.916639 -0.204589,-2.826374 -0.204589,-2.826374"
       id="path5279-6"
       inkscape:connector-curvature="0"
       sodipodi:nodetypes="csssssc" />
  </g>
</svg>
