<?xml version="1.0" encoding="UTF-8" standalone="no"?>
<!-- Created with Inkscape (http://www.inkscape.org/) -->

<svg
   xmlns:dc="http://purl.org/dc/elements/1.1/"
   xmlns:cc="http://creativecommons.org/ns#"
   xmlns:rdf="http://www.w3.org/1999/02/22-rdf-syntax-ns#"
   xmlns:svg="http://www.w3.org/2000/svg"
   xmlns="http://www.w3.org/2000/svg"
   xmlns:sodipodi="http://sodipodi.sourceforge.net/DTD/sodipodi-0.dtd"
   xmlns:inkscape="http://www.inkscape.org/namespaces/inkscape"
   width="64px"
   height="64px"
   id="svg5318"
   version="1.1"
   inkscape:version="0.48.4 r9939"
   sodipodi:docname="New document 47">
  <defs
     id="defs5320" />
  <sodipodi:namedview
     id="base"
     pagecolor="#ffffff"
     bordercolor="#666666"
     borderopacity="1.0"
     inkscape:pageopacity="0.0"
     inkscape:pageshadow="2"
     inkscape:zoom="8.4375"
     inkscape:cx="12.207407"
     inkscape:cy="32"
     inkscape:current-layer="layer1"
     showgrid="true"
     inkscape:document-units="px"
     inkscape:grid-bbox="true"
     inkscape:window-width="1366"
     inkscape:window-height="718"
     inkscape:window-x="0"
     inkscape:window-y="0"
     inkscape:window-maximized="1" />
  <metadata
     id="metadata5323">
    <rdf:RDF>
      <cc:Work
         rdf:about="">
        <dc:format>image/svg+xml</dc:format>
        <dc:type
           rdf:resource="http://purl.org/dc/dcmitype/StillImage" />
        <dc:title></dc:title>
      </cc:Work>
    </rdf:RDF>
  </metadata>
  <g
     id="layer1"
     inkscape:label="Layer 1"
     inkscape:groupmode="layer">
    <path
       sodipodi:type="arc"
       style="fill:#b3b3b3;fill-opacity:1;stroke:#000000;stroke-width:1"
       id="path5948"
       sodipodi:cx="32.118519"
       sodipodi:cy="40.651852"
       sodipodi:rx="18.488888"
       sodipodi:ry="20.503704"
       d="m 50.607407,40.651852 a 18.488888,20.503704 0 1 1 -36.977776,0 18.488888,20.503704 0 1 1 36.977776,0 z"
       transform="translate(0,-1.4222222)" />
    <path
       sodipodi:type="arc"
       style="fill:#b3b3b3;fill-opacity:1;stroke:#000000;stroke-width:1"
       id="path5326"
       sodipodi:cx="11.022223"
       sodipodi:cy="30.044445"
       sodipodi:rx="5.4518518"
       sodipodi:ry="5.2740741"
       d="m 16.474075,30.044445 a 5.4518518,5.2740741 0 1 1 -10.9037034,0 5.4518518,5.2740741 0 1 1 10.9037034,0 z" />
    <path
       transform="translate(40.533332,0.05925864)"
       sodipodi:type="arc"
       style="fill:#b3b3b3;fill-opacity:1;stroke:#000000;stroke-width:1"
       id="path5326-7"
       sodipodi:cx="11.022223"
       sodipodi:cy="30.044445"
       sodipodi:rx="5.4518518"
       sodipodi:ry="5.2740741"
       d="m 16.474075,30.044445 a 5.4518518,5.2740741 0 1 1 -10.9037034,0 5.4518518,5.2740741 0 1 1 10.9037034,0 z" />
    <path
       transform="translate(35.792591,24.118518)"
       sodipodi:type="arc"
       style="fill:#b3b3b3;fill-opacity:1;stroke:#000000;stroke-width:1"
       id="path5326-4"
       sodipodi:cx="11.022223"
       sodipodi:cy="30.044445"
       sodipodi:rx="5.4518518"
       sodipodi:ry="5.2740741"
       d="m 16.474075,30.044445 a 5.4518518,5.2740741 0 1 1 -10.9037034,0 5.4518518,5.2740741 0 1 1 10.9037034,0 z" />
    <path
       transform="translate(6.7555543,24.711111)"
       sodipodi:type="arc"
       style="fill:#b3b3b3;fill-opacity:1;stroke:#000000;stroke-width:1"
       id="path5326-1"
       sodipodi:cx="11.022223"
       sodipodi:cy="30.044445"
       sodipodi:rx="5.4518518"
       sodipodi:ry="5.2740741"
       d="m 16.474075,30.044445 a 5.4518518,5.2740741 0 1 1 -10.9037034,0 5.4518518,5.2740741 0 1 1 10.9037034,0 z" />
    <path
       sodipodi:type="arc"
       style="fill:#b3b3b3;fill-opacity:1;stroke:#000000;stroke-width:1"
       id="path5360"
       sodipodi:cx="31.17037"
       sodipodi:cy="16.77037"
       sodipodi:rx="14.222222"
       sodipodi:ry="12.740741"
       d="m 45.392592,16.77037 a 14.222222,12.740741 0 1 1 -28.444444,0 14.222222,12.740741 0 1 1 28.444444,0 z" />
    <path
       style="fill:#ffafff;fill-opacity:1;stroke:#000000;stroke-width:1px;stroke-linecap:butt;stroke-linejoin:miter;stroke-opacity:1"
       d="m 20.622222,7.9407407 c 0,0 -4.107925,-4.5831482 -9.007407,-4.5037037 C 9.5754552,3.470105 7.5110891,4.3508618 6.637037,5.5703704 4.7198797,7.6259539 4.6619442,11.185542 4.5037037,14.577778 c 0,2.725926 -0.069536,5.781968 0.9481482,8.414815 0.7272003,2.402342 2.144689,4.306477 3.437037,4.74074 1.5407411,0.474075 4.1481481,-0.711111 5.0962961,-1.896296 0.948148,-1.185185 1.73948,-3.067994 2.251852,-4.740741 0.538364,-1.757601 0.82963,-5.451852 0.82963,-5.451852 0,0 0.458888,-2.560438 1.185184,-4.029629 0.549746,-1.112055 2.370371,-3.6740743 2.370371,-3.6740743 z"
       id="path5362"
       inkscape:connector-curvature="0"
       sodipodi:nodetypes="csccccsscsc" />
    <path
       style="fill:#ffafff;fill-opacity:1;stroke:#000000;stroke-width:1px;stroke-linecap:butt;stroke-linejoin:miter;stroke-opacity:1"
       d="m 42.19209,8.776624 c 0,0 4.107925,-4.5831482 9.007407,-4.5037037 2.03936,0.033068 4.103726,0.9138248 4.977778,2.1333334 1.917157,2.0555835 1.975093,5.6151713 2.133333,9.0074073 0,2.725926 0.06954,5.781968 -0.948148,8.414815 -0.7272,2.402342 -2.144689,4.306477 -3.437037,4.74074 -1.540741,0.474075 -4.148148,-0.711111 -5.096296,-1.896296 -0.948148,-1.185185 -1.73948,-3.067994 -2.251852,-4.740741 -0.538364,-1.757601 -0.82963,-5.451852 -0.82963,-5.451852 0,0 -0.458888,-2.560438 -1.185184,-4.029629 C 44.012715,11.338643 42.19209,8.776624 42.19209,8.776624 z"
       id="path5362-1"
       inkscape:connector-curvature="0"
       sodipodi:nodetypes="csccccsscsc" />
    <g
       id="g5912">
      <path
         transform="matrix(1.450809,0,0,1.4998179,-11.668453,-6.9902185)"
         d="m 29.037037,13.037037 a 3.0222223,2.8444445 0 1 1 -6.044445,0 3.0222223,2.8444445 0 1 1 6.044445,0 z"
         sodipodi:ry="2.8444445"
         sodipodi:rx="3.0222223"
         sodipodi:cy="13.037037"
         sodipodi:cx="26.014814"
         id="path5890"
         style="fill:#ffffff;fill-opacity:1;stroke:#000000;stroke-width:0.67791558"
         sodipodi:type="arc" />
      <path
         transform="matrix(0.90469614,0,0,1.0084101,1.9488445,-0.11711772)"
         d="m 28.918518,13.925926 a 2.2518518,2.6666667 0 1 1 -4.503704,0 2.2518518,2.6666667 0 1 1 4.503704,0 z"
         sodipodi:ry="2.6666667"
         sodipodi:rx="2.2518518"
         sodipodi:cy="13.925926"
         sodipodi:cx="26.666666"
         id="path5910"
         style="fill:#000000;fill-opacity:1;stroke:#000000;stroke-width:1"
         sodipodi:type="arc" />
    </g>
    <g
       transform="matrix(-1,0,0,1,62.340741,-1.4814815e-7)"
       id="g5912-6">
      <path
         transform="matrix(1.450809,0,0,1.4998179,-11.668453,-6.9902185)"
         d="m 29.037037,13.037037 c 0,1.570943 -1.353095,2.844444 -3.022223,2.844444 -1.669127,0 -3.022222,-1.273501 -3.022222,-2.844444 0,-1.570943 1.353095,-2.844445 3.022222,-2.844445 1.669128,0 3.022223,1.273502 3.022223,2.844445 z"
         sodipodi:ry="2.8444445"
         sodipodi:rx="3.0222223"
         sodipodi:cy="13.037037"
         sodipodi:cx="26.014814"
         id="path5890-5"
         style="fill:#ffffff;fill-opacity:1;stroke:#000000;stroke-width:0.67791557"
         sodipodi:type="arc" />
      <path
         transform="matrix(0.90469614,0,0,1.0084101,1.9488445,-0.11711772)"
         d="m 28.918518,13.925926 c 0,1.47276 -1.008189,2.666667 -2.251852,2.666667 -1.243663,0 -2.251852,-1.193907 -2.251852,-2.666667 0,-1.472759 1.008189,-2.666667 2.251852,-2.666667 1.243663,0 2.251852,1.193908 2.251852,2.666667 z"
         sodipodi:ry="2.6666667"
         sodipodi:rx="2.2518518"
         sodipodi:cy="13.925926"
         sodipodi:cx="26.666666"
         id="path5910-0"
         style="fill:#000000;fill-opacity:1;stroke:#000000;stroke-width:1"
         sodipodi:type="arc" />
    </g>
    <path
       style="fill:#b3b3b3;stroke:#000000;stroke-width:1px;stroke-linecap:butt;stroke-linejoin:miter;stroke-opacity:1"
       d="m 26.192593,21.333333 c 0,0 1.401744,2.973535 1.777777,7.585185 0.176586,2.165652 1.39708,7.011212 1.896296,9.125926 1.086666,4.144762 4.603792,5.690791 7.111112,5.57037 3.132968,-0.0052 6.934941,-0.576887 6.992592,-4.385185 -0.02877,-1.336495 -1.365014,-2.457196 -1.303704,-3.792593 0.03974,-0.865526 0.996454,-1.506782 1.066667,-2.37037 0.0497,-0.611284 0.0851,-1.525867 -0.474074,-1.777778 -0.32217,-0.145139 -0.686713,0.236354 -0.948148,0.474074 -0.551498,0.50147 -0.458873,1.728686 -1.185185,1.896297 -0.726312,0.167611 -1.167016,-1.031001 -1.896297,-1.185185 -0.546619,-0.115566 -1.385537,-0.250019 -1.659259,0.237037 -0.294807,0.524576 0.336746,1.188152 0.711111,1.659259 0.457182,0.575326 1.35915,0.699746 1.777778,1.303704 0.74812,1.07932 1.438195,2.532996 1.066667,3.792592 -0.253391,0.859076 -1.158554,1.515029 -2.014815,1.777778 -4.819081,-0.04824 -4.754079,-2.29714 -5.451852,-4.977778 -0.368318,-2.754323 0.05673,-5.205623 0.355556,-7.229629 0.244057,-1.653057 1.896296,-7.466667 1.896296,-7.466667"
       id="path5946"
       inkscape:connector-curvature="0"
       sodipodi:nodetypes="cscccssssssssssccsc" />
    <path
       sodipodi:type="arc"
       style="fill:#ffafff;fill-opacity:1;stroke:#000000;stroke-width:0.5"
       id="path5953"
       sodipodi:cx="32.177776"
       sodipodi:cy="49.599998"
       sodipodi:rx="1.0074074"
       sodipodi:ry="1.0074074"
       d="m 33.185184,49.599998 a 1.0074074,1.0074074 0 1 1 -2.014815,0 1.0074074,1.0074074 0 1 1 2.014815,0 z" />
    <path
       transform="matrix(1.2771464,-0.11379178,-0.32127031,0.88724766,-16.686651,-7.6348043)"
       sodipodi:type="arc"
       style="fill:#ffafff;fill-opacity:1;stroke:#000000;stroke-width:0.5"
       id="path5953-7"
       sodipodi:cx="32.177776"
       sodipodi:cy="49.599998"
       sodipodi:rx="1.0074074"
       sodipodi:ry="1.0074074"
       d="m 33.185184,49.599998 a 1.0074074,1.0074074 0 1 1 -2.014815,0 1.0074074,1.0074074 0 1 1 2.014815,0 z" />
    <path
       transform="matrix(1.2807963,0.06010378,-0.43839421,0.8356037,-11.883638,-12.565133)"
       sodipodi:type="arc"
       style="fill:#ffafff;fill-opacity:1;stroke:#000000;stroke-width:0.5"
       id="path5953-7-8"
       sodipodi:cx="32.177776"
       sodipodi:cy="49.599998"
       sodipodi:rx="1.0074074"
       sodipodi:ry="1.0074074"
       d="m 33.185184,49.599998 a 1.0074074,1.0074074 0 1 1 -2.014815,0 1.0074074,1.0074074 0 1 1 2.014815,0 z" />
    <path
       transform="matrix(1.2187739,0.39829859,-0.64468329,0.68906203,0.2255225,-17.956801)"
       sodipodi:type="arc"
       style="fill:#ffafff;fill-opacity:1;stroke:#000000;stroke-width:0.5"
       id="path5953-7-8-8"
       sodipodi:cx="32.177776"
       sodipodi:cy="49.599998"
       sodipodi:rx="1.0074074"
       sodipodi:ry="1.0074074"
       d="m 33.185184,49.599998 a 1.0074074,1.0074074 0 1 1 -2.014815,0 1.0074074,1.0074074 0 1 1 2.014815,0 z" />
    <path
       transform="matrix(-1.2771464,-0.11379178,0.32127031,0.88724766,79.737001,-7.1511294)"
       sodipodi:type="arc"
       style="fill:#ffafff;fill-opacity:1;stroke:#000000;stroke-width:0.5"
       id="path5953-7-3"
       sodipodi:cx="32.177776"
       sodipodi:cy="49.599998"
       sodipodi:rx="1.0074074"
       sodipodi:ry="1.0074074"
       d="m 33.185184,49.599998 a 1.0074074,1.0074074 0 1 1 -2.014815,0 1.0074074,1.0074074 0 1 1 2.014815,0 z" />
    <path
       transform="matrix(-1.2807963,0.06010378,0.43839421,0.8356037,74.933988,-12.081458)"
       sodipodi:type="arc"
       style="fill:#ffafff;fill-opacity:1;stroke:#000000;stroke-width:0.5"
       id="path5953-7-8-86"
       sodipodi:cx="32.177776"
       sodipodi:cy="49.599998"
       sodipodi:rx="1.0074074"
       sodipodi:ry="1.0074074"
       d="m 33.185184,49.599998 a 1.0074074,1.0074074 0 1 1 -2.014815,0 1.0074074,1.0074074 0 1 1 2.014815,0 z" />
    <path
       transform="matrix(-1.2187739,0.39829859,0.64468329,0.68906203,62.824827,-17.473126)"
       sodipodi:type="arc"
       style="fill:#ffafff;fill-opacity:1;stroke:#000000;stroke-width:0.5"
       id="path5953-7-8-8-1"
       sodipodi:cx="32.177776"
       sodipodi:cy="49.599998"
       sodipodi:rx="1.0074074"
       sodipodi:ry="1.0074074"
       d="m 33.185184,49.599998 a 1.0074074,1.0074074 0 1 1 -2.014815,0 1.0074074,1.0074074 0 1 1 2.014815,0 z" />
    <path
       transform="matrix(1.5830384,-0.11260076,-0.39821843,0.87796113,-15.353717,17.548746)"
       sodipodi:type="arc"
       style="fill:#ffafff;fill-opacity:1;stroke:#000000;stroke-width:0.5"
       id="path5953-7-84"
       sodipodi:cx="32.177776"
       sodipodi:cy="49.599998"
       sodipodi:rx="1.0074074"
       sodipodi:ry="1.0074074"
       d="m 33.185184,49.599998 a 1.0074074,1.0074074 0 1 1 -2.014815,0 1.0074074,1.0074074 0 1 1 2.014815,0 z" />
    <path
       transform="matrix(1.5875625,0.05947469,-0.54339491,0.82685771,-9.4003241,12.670022)"
       sodipodi:type="arc"
       style="fill:#ffafff;fill-opacity:1;stroke:#000000;stroke-width:0.5"
       id="path5953-7-8-2"
       sodipodi:cx="32.177776"
       sodipodi:cy="49.599998"
       sodipodi:rx="1.0074074"
       sodipodi:ry="1.0074074"
       d="m 33.185184,49.599998 a 1.0074074,1.0074074 0 1 1 -2.014815,0 1.0074074,1.0074074 0 1 1 2.014815,0 z" />
    <path
       transform="matrix(1.510685,0.39412973,-0.79909272,0.68184985,5.6091271,7.3347867)"
       sodipodi:type="arc"
       style="fill:#ffafff;fill-opacity:1;stroke:#000000;stroke-width:0.5"
       id="path5953-7-8-8-4"
       sodipodi:cx="32.177776"
       sodipodi:cy="49.599998"
       sodipodi:rx="1.0074074"
       sodipodi:ry="1.0074074"
       d="m 33.185184,49.599998 a 1.0074074,1.0074074 0 1 1 -2.014815,0 1.0074074,1.0074074 0 1 1 2.014815,0 z" />
    <path
       transform="matrix(-1.5830384,-0.11260076,0.39821843,0.87796113,80.301865,16.837635)"
       sodipodi:type="arc"
       style="fill:#ffafff;fill-opacity:1;stroke:#000000;stroke-width:0.5"
       id="path5953-7-84-5"
       sodipodi:cx="32.177776"
       sodipodi:cy="49.599998"
       sodipodi:rx="1.0074074"
       sodipodi:ry="1.0074074"
       d="m 33.185184,49.599998 a 1.0074074,1.0074074 0 1 1 -2.014815,0 1.0074074,1.0074074 0 1 1 2.014815,0 z" />
    <path
       transform="matrix(-1.5875625,0.05947469,0.54339491,0.82685771,74.348472,11.958911)"
       sodipodi:type="arc"
       style="fill:#ffafff;fill-opacity:1;stroke:#000000;stroke-width:0.5"
       id="path5953-7-8-2-9"
       sodipodi:cx="32.177776"
       sodipodi:cy="49.599998"
       sodipodi:rx="1.0074074"
       sodipodi:ry="1.0074074"
       d="m 33.185184,49.599998 a 1.0074074,1.0074074 0 1 1 -2.014815,0 1.0074074,1.0074074 0 1 1 2.014815,0 z" />
    <path
       transform="matrix(-1.510685,0.39412973,0.79909272,0.68184985,59.339021,6.6236752)"
       sodipodi:type="arc"
       style="fill:#ffafff;fill-opacity:1;stroke:#000000;stroke-width:0.5"
       id="path5953-7-8-8-4-4"
       sodipodi:cx="32.177776"
       sodipodi:cy="49.599998"
       sodipodi:rx="1.0074074"
       sodipodi:ry="1.0074074"
       d="m 33.185184,49.599998 a 1.0074074,1.0074074 0 1 1 -2.014815,0 1.0074074,1.0074074 0 1 1 2.014815,0 z" />
  </g>
</svg>
